{"count":262,"next":"http://showtimes.everyday.in.th/api/v2/theater/?limit=20&offset=20","previous":null,"results":[{"url":"http://showtimes.everyday.in.th/api/v2/theater/10/","group":{"code":"sf","english":"SF","thai":"เอสเอฟ","website":"http://sfcinemacity.com/"},"showtimes":"http://showtimes.everyday.in.th/api/v2/theater/10/showtimes/","num_views":148230,"today_screens":10,"min_screens":3,"fav":false,"stars":6,"id":10,"code":"9901","slug":"sf-cinema-city-mbk-center","english":"SF Cinema City MBK Center","thai":"เอส เอฟ ซีเนม่า เอ็มบีเค เซ็นเตอร์","website":"","status":"operate","location":"7-8th FL. MBK Center","point":"SRID=4326;POINT (100.53 13.7447)","tel":"0-2268-8888"},{"url":"http://showtimes.everyday.in.th/api/v2/theater/8/","group":{"code":"sf","english":"SF","thai":"เอสเอฟ","website":"http://sfcinemacity.com/"},"showtimes":"http://showtimes.everyday.in.th/api/v2/theater/8/showtimes/","num_views":113038,"today_screens":10,"min_screens":3,"fav":false,"stars":1,"id":8,"code":"9902","slug":"sf-cinema-city-the-mall-bangkapi","english":"SF Cinema City The Mall Bangkapi","thai":"เอส เอฟ ซีเนม่า เดอะมอลล์ บางกะปิ","website":"","status":"operate","location":"4th FL. The Mall Bangkapi","point":"SRID=4326;POINT (100.6425 13.7659)","tel":"0-2268-8888"},{"url":"http://showtimes.everyday.in.th/api/v2/theater/11/","group":{"code":"sf","english":"SF","thai":"เอสเอฟ","website":"http://sfcinemacity.com/"},"showtimes":"http://showtimes.everyday.in.th/api/v2/theater/11/showtimes/","num_views":81929,"today_screens":12,"min_screens":3,"fav":false,"stars":2,"id":11,"code":"9903","slug":"sf-cinema-city-the-mall-ngamwongwan","english":"SFX Cinema The Mall Ngamwongwan","thai":"เอส เอฟ เอ๊กซ์ ซีเนม่า เดอะมอลล์ งามวงศ์วาน","website":"","status":"operate","location":"7th FL. The Mall Ngamwongwan","point":"SRID=4326;POINT (100.542 13.8554)","tel":"02-268-8888"},{"url":"http://showtimes.everyday.in.th/api/v2/theater/7/","group":{"code":"sf","english":"SF","thai":"เอสเอฟ","website":"http://sfcinemacity.com/"},"showtimes":"http://showtimes.everyday.in.th/api/v2/theater/7/showtimes/","num_views":71062,"today_screens":9,"min_screens":3,"fav":false,"stars":1,"id":7,"code":"9904","slug":"sf-cinema-city-the-mall-bangkae","english":"SF Cinema City The Mall Bangkae","thai":"เอส เอฟ ซีเนม่า เดอะมอลล์ บางแค","website":"","status":"operate","location":"4th FL. The Mall Bangkae","point":"SRID=4326;POINT (100.408 13.7126)","tel":"0-2268-8888"},{"url":"http://showtimes.everyday.in.th/api/v2/theater/139/","group":{"code":"sf","english":"SF","thai":"เอสเอฟ","website":"http://sfcinemacity.com/"},"showtimes":"http://showtimes.everyday.in.th/api/v2/theater/139/showtimes/","num_views":118239,"today_screens":6,"min_screens":3,"fav":false,"stars":1,"id":139,"code":"9905","slug":"emprive-cineclub","english":"Emprive Cineclub","thai":"เอ็มพรีเว่ ซีเนคลับ เอ็มโพเรียม","website":"http://www.emprivecineclub.com/","status":"operate","location":"5th FL. The Emporium","point":"SRID=4326;POINT (100.569 13.7301)","tel":"02-268-8899"},{"url":"http://showtimes.everyday.in.th/api/v2/theater/2/","group":{"code":"sf","english":"SF","thai":"เอสเอฟ","website":"http://sfcinemacity.com/"},"showtimes":"http://showtimes.everyday.in.th/api/v2/theater/2/showtimes/","num_views":84343,"today_screens":13,"min_screens":3,"fav":false,"stars":4,"id":2,"code":"9906","slug":"sfx-cinema-central-ladprao","english":"SFX Cinema Central Ladprao","thai":"เอส เอฟ เอ็กซ์ ซีเนม่า เซ็นทรัล พลาซา ลาดพร้าว ","website":"","status":"operate","location":"6th FL. Central Ladprao","point":"SRID=4326;POINT (100.5609 13.8169)","tel":"0-2268-8888"},{"url":"http://showtimes.everyday.in.th/api/v2/theater/3/","group":{"code":"sf","english":"SF","thai":"เอสเอฟ","website":"http://sfcinemacity.com/"},"showtimes":"http://showtimes.everyday.in.th/api/v2/theater/3/showtimes/","num_views":85151,"today_screens":10,"min_screens":3,"fav":false,"stars":0,"id":3,"code":"9907","slug":"sfx-cinema-central-phuket","english":"SFX Cinema Central Phuket","thai":"เอส เอฟ เอ็กซ์ ซีเนม่า เซ็นทรัลเฟสติวัล ภูเก็ต","website":"","status":"operate","location":"3rd FL. Central Phuket","point":"SRID=4326;POINT (98.3682 7.8919)","tel":"076-209-000"},{"url":"http://showtimes.everyday.in.th/api/v2/theater/13/","group":{"code":"sf","english":"SF","thai":"เอสเอฟ","website":"http://sfcinemacity.com/"},"showtimes":"http://showtimes.everyday.in.th/api/v2/theater/13/showtimes/","num_views":31886,"today_screens":9,"min_screens":3,"fav":false,"stars":0,"id":13,"code":"9908","slug":"sf-cinema-city-central-rattanatibeth","english":"SF Cinema City Central Rattanatibeth","thai":"เอส เอฟ ซีเนม่า เซ็นทรัล พลาซา รัตนาธิเบศร์","website":"","status":"operate","location":"3rd FL. Central Rattanatibeth","point":"SRID=4326;POINT (100.497 13.8666)","tel":"0-2268-8888"},{"url":"http://showtimes.everyday.in.th/api/v2/theater/121/","group":{"code":"sf","english":"SF","thai":"เอสเอฟ","website":"http://sfcinemacity.com/"},"showtimes":"http://showtimes.everyday.in.th/api/v2/theater/121/showtimes/","num_views":232554,"today_screens":19,"min_screens":3,"fav":false,"stars":7,"id":121,"code":"9909","slug":"sf-world-cinema-central-world","english":"SF World Cinema Central World","thai":"เอส เอฟ เวิลด์ ซีเนม่า เซ็นทรัลเวิลด์","website":"","status":"operate","location":"7th FL. CentralWorld","point":"SRID=4326;POINT (100.538 13.7462)","tel":"0-2268-8888"},{"url":"http://showtimes.everyday.in.th/api/v2/theater/28/","group":{"code":"sf","english":"SF","thai":"เอสเอฟ","website":"http://sfcinemacity.com/"},"showtimes":"http://showtimes.everyday.in.th/api/v2/theater/28/showtimes/","num_views":12003,"today_screens":6,"min_screens":3,"fav":false,"stars":1,"id":28,"code":"9910","slug":"sf-cinema-city-central-pattaya","english":"SF Cinema City Central Pattaya","thai":"เอส เอฟ ซีเนม่า เซ็นทรัลมารีนา พัทยา","website":"","status":"operate","location":"3rd FL. Central Marina Pattaya","point":"SRID=4326;POINT (100.8905503 12.9453969)","tel":"038-488-700"},{"url":"http://showtimes.everyday.in.th/api/v2/theater/12/","group":{"code":"sf","english":"SF","thai":"เอสเอฟ","website":"http://sfcinemacity.com/"},"showtimes":"http://showtimes.everyday.in.th/api/v2/theater/12/showtimes/","num_views":50462,"today_screens":0,"min_screens":3,"fav":false,"stars":0,"id":12,"code":"9911","slug":"sf-cinema-city-central-ramintra","english":"SF Cinema City Central Ramintra","thai":"เอส เอฟ ซีเนม่า เซ็นทรัล พลาซา รามอินทรา","website":"","status":"operate","location":"4th FL. Central Ramintra","point":"SRID=4326;POINT (100.622 13.863)","tel":"0-2268-8888"},{"url":"http://showtimes.everyday.in.th/api/v2/theater/16/","group":{"code":"sf","english":"SF","thai":"เอสเอฟ","website":"http://sfcinemacity.com/"},"showtimes":"http://showtimes.everyday.in.th/api/v2/theater/16/showtimes/","num_views":115001,"today_screens":8,"min_screens":3,"fav":false,"stars":1,"id":16,"code":"9912","slug":"sf-cinema-city-the-mall-thapra","english":"SF Cinema City The Mall Thapra","thai":"เอส เอฟ ซีเนม่า เดอะมอลล์ ท่าพระ","website":"","status":"operate","location":"5th FL. The Mall Thapra","point":"SRID=4326;POINT (100.480595 13.7132015)","tel":"0-2268-8888"},{"url":"http://showtimes.everyday.in.th/api/v2/theater/21/","group":{"code":"sf","english":"SF","thai":"เอสเอฟ","website":"http://sfcinemacity.com/"},"showtimes":"http://showtimes.everyday.in.th/api/v2/theater/21/showtimes/","num_views":27150,"today_screens":0,"min_screens":3,"fav":false,"stars":0,"id":21,"code":"9913","slug":"sf-cinema-city-jungceylon-patong","english":"SF Cinema City Jungceylon Patong","thai":"เอส เอฟ ซีเนม่า จังซีลอน ป่าตอง","website":"http://www.jungceylon.com/","status":"operate","location":"3rd FL. Jungceylon Patong","point":"SRID=4326;POINT (98.2998 7.8914)","tel":"076-600-555"},{"url":"http://showtimes.everyday.in.th/api/v2/theater/5/","group":{"code":"sf","english":"SF","thai":"เอสเอฟ","website":"http://sfcinemacity.com/"},"showtimes":"http://showtimes.everyday.in.th/api/v2/theater/5/showtimes/","num_views":236174,"today_screens":11,"min_screens":3,"fav":false,"stars":4,"id":5,"code":"9914","slug":"sfx-cinema-central-pattaya-beach","english":"SFX Cinema Central Pattaya Beach","thai":"เอส เอฟ เอ็กซ์ ซีเนม่า เซ็นทรัลเฟสติวัล พัทยาบีช","website":"","status":"operate","location":"6th FL. Central Pattaya Beach","point":"SRID=4326;POINT (100.8841 12.9341)","tel":"033-003-555"},{"url":"http://showtimes.everyday.in.th/api/v2/theater/1/","group":{"code":"sf","english":"SF","thai":"เอสเอฟ","website":"http://sfcinemacity.com/"},"showtimes":"http://showtimes.everyday.in.th/api/v2/theater/1/showtimes/","num_views":87052,"today_screens":9,"min_screens":3,"fav":false,"stars":0,"id":1,"code":"9915","slug":"sfx-cinema-central-chaengwattana","english":"SFX Cinema Central Chaengwattana","thai":"เอส เอฟ เอ็กซ์ ซีเนม่า เซ็นทรัล พลาซา แจ้งวัฒนะ","website":"","status":"operate","location":"7th FL. Central Chaengwattana","point":"SRID=4326;POINT (100.5281 13.9036)","tel":"0-2268-8888"},{"url":"http://showtimes.everyday.in.th/api/v2/theater/20/","group":{"code":"sf","english":"SF","thai":"เอสเอฟ","website":"http://sfcinemacity.com/"},"showtimes":"http://showtimes.everyday.in.th/api/v2/theater/20/showtimes/","num_views":40321,"today_screens":6,"min_screens":3,"fav":false,"stars":0,"id":20,"code":"9916","slug":"sf-cinema-city-laemchabang","english":"SF Cinema City Laemchabang","thai":"เอส เอฟ ซีเนม่า ฮาร์เบอร์ แหลมฉบัง","website":"","status":"operate","location":"4th FL. Harbor Mall Laemchabang","point":"SRID=4326;POINT (100.9211 13.0793)","tel":"038-400-666"},{"url":"http://showtimes.everyday.in.th/api/v2/theater/19/","group":{"code":"sf","english":"SF","thai":"เอสเอฟ","website":"http://sfcinemacity.com/"},"showtimes":"http://showtimes.everyday.in.th/api/v2/theater/19/showtimes/","num_views":80640,"today_screens":6,"min_screens":3,"fav":false,"stars":0,"id":19,"code":"9917","slug":"sf-cinema-city-central-chonburi","english":"SF Cinema City Central Chonburi","thai":"เอส เอฟ ซีเนม่า เซ็นทรัล ชลบุรี","website":"","status":"operate","location":"4th FL. Central Chonburi","point":"SRID=4326;POINT (100.9697 13.3365)","tel":"033-003-222"},{"url":"http://showtimes.everyday.in.th/api/v2/theater/22/","group":{"code":"sf","english":"SF","thai":"เอสเอฟ","website":"http://sfcinemacity.com/"},"showtimes":"http://showtimes.everyday.in.th/api/v2/theater/22/showtimes/","num_views":67376,"today_screens":4,"min_screens":3,"fav":false,"stars":0,"id":22,"code":"9918","slug":"sf-cinema-city-bangsaen","english":"SF Cinema City Bangsaen","thai":"เอส เอฟ ซีเนม่า แหลมทอง บางแสน","website":"http://www.sfcinemacity.com/index.php/th/timetable/lookup/cinema/Laemtong-Bangsaen","status":"operate","location":"4th FL. Laemtong Bangsaen","point":"SRID=4326;POINT (100.9267 13.2868)","tel":"038-748-866"},{"url":"http://showtimes.everyday.in.th/api/v2/theater/9/","group":{"code":"sf","english":"SF","thai":"เอสเอฟ","website":"http://sfcinemacity.com/"},"showtimes":"http://showtimes.everyday.in.th/api/v2/theater/9/showtimes/","num_views":34178,"today_screens":0,"min_screens":3,"fav":false,"stars":1,"id":9,"code":"9919","slug":"sf-cinema-city-the-square-bangyai","english":"SF Cinema City The Square Bangyai","thai":"เอส เอฟ ซีเนม่า เดอะสแควร์ บางใหญ่","website":"","status":"operate","location":"4th FL. The Square Cinemas","point":"SRID=4326;POINT (100.41 13.8838)","tel":"0-2268-8888"},{"url":"http://showtimes.everyday.in.th/api/v2/theater/256/","group":{"code":"sf","english":"SF","thai":"เอสเอฟ","website":"http://sfcinemacity.com/"},"showtimes":"http://showtimes.everyday.in.th/api/v2/theater/256/showtimes/","num_views":740,"today_screens":0,"min_screens":2,"fav":false,"stars":0,"id":256,"code":"9920","slug":"","english":"SF CINEMA Big C Prachinburi","thai":"เอส เอฟ ซีเนม่า บิ๊กซี ปราจีนบุรี","website":"","status":"operate","location":"1st FL. Big C Prachinburi","point":"SRID=4326;POINT (101.374179 14.069739)","tel":"037-217-676"}]}